{
  "name": "foo",
  "desc": "Test source",
  "url": "http://example.org/source",
  "contribution_types": [
    {
       "name": "upload",
       "desc": "Package uploaders",
       "contrib_desc": "Uploaded packages"
    },
    {
       "name": "sponsor",
       "desc": "Package sponsors",
       "contrib_desc": "Sponsored packages"
    }
  ],
  "auth_token": "12345"
}
